Grouped_project.utf8.md
…
Respone Time - Data cleaning

Aug 30

Pending cases

Cancelled cases

Expired cases

Response Time (in days) = difference of day of updated and day of created

Respone Time

## # A tibble: 789 x 19
##       id recipient_id actor_id requestable
##    <dbl>        <dbl>    <dbl> <chr>      
##  1     2         1142    18026 project    
##  2     3          910    17140 project    
##  3     6          910    11947 project    
##  4     7         1052    17730 project    
##  5     9         1161    18096 project    
##  6    13         1052    17750 project    
##  7    16         1052    17612 project    
##  8    18         1156    15377 project    
##  9    21         1142    17798 project    
## 10    23         1052    15271 project    
## #  with 779 more rows, and 15 more variables:
## #   day_created <chr>, day_uploaded <chr>,
## #   day_expired <chr>, state <chr>,
## #   day_created2 <date>, month_created <dbl>,
## #   month_year <chr>, month_interval <dbl>,
## #   sender_type <chr>, recipient_type <chr>,
## #   day_created3 <date>, day_updated <date>,
## #   response_time <time>,
## #   created_before_Nov21 <lgl>,
…
